<?xml version="1.0" encoding="utf-8"?>
<!-- Generator: Adobe Illustrator 22.0.1, SVG Export Plug-In . SVG Version: 6.00 Build 0)  -->
<svg version="1.1" id="Capa_1" xmlns="http://www.w3.org/2000/svg" xmlns:xlink="http://www.w3.org/1999/xlink" x="0px" y="0px"
	 viewBox="0 0 34.2 34.2" style="enable-background:new 0 0 34.2 34.2;" xml:space="preserve">
<style type="text/css">
	.st0{fill:#031F73;}
</style>
<g>
	<path class="st0" d="M18,25.1v4.6H1.6V3.9H18v5h1.6V2.5c0-1.3-1-2.3-2.3-2.3h-15C1,0.2,0,1.3,0,2.5v29.1c0,1.3,1,2.3,2.3,2.3h15
		c1.3,0,2.3-1,2.3-2.3v-6.5L18,25.1L18,25.1z M7.4,1.9h4.8c0.2,0,0.3,0.1,0.3,0.3c0,0.2-0.1,0.3-0.3,0.3H7.4c-0.2,0-0.3-0.1-0.3-0.3
		C7.1,2,7.2,1.9,7.4,1.9z M9.8,32.8c-0.6,0-1.1-0.5-1.1-1.1c0-0.6,0.5-1.1,1.1-1.1c0.6,0,1.1,0.5,1.1,1.1
		C10.9,32.3,10.4,32.8,9.8,32.8z M25.4,23.7H9.1l-3-13.4h18.3L24,12.2H8.5l2.1,9.6h13.2l3.3-15h7v1.9h-5.4L25.4,23.7z M14.5,26.3
		c0,1-0.8,1.8-1.8,1.8c-1,0-1.8-0.8-1.8-1.8c0-1,0.8-1.8,1.8-1.8C13.7,24.5,14.5,25.3,14.5,26.3z M23.9,26.3c0,1-0.8,1.8-1.8,1.8
		c-1,0-1.8-0.8-1.8-1.8c0-1,0.8-1.8,1.8-1.8C23.1,24.5,23.9,25.3,23.9,26.3z"/>
</g>
</svg>
