<?xml version="1.0" encoding="UTF-8" standalone="no"?>
<svg
   xmlns:dc="http://purl.org/dc/elements/1.1/"
   xmlns:cc="http://creativecommons.org/ns#"
   xmlns:rdf="http://www.w3.org/1999/02/22-rdf-syntax-ns#"
   xmlns:svg="http://www.w3.org/2000/svg"
   xmlns="http://www.w3.org/2000/svg"
   xmlns:sodipodi="http://sodipodi.sourceforge.net/DTD/sodipodi-0.dtd"
   xmlns:inkscape="http://www.inkscape.org/namespaces/inkscape"
   version="1.0"
   width="176.99483pt"
   height="167.86958pt"
   viewBox="0 0 176.99483 167.86958"
   preserveAspectRatio="xMidYMid meet"
   id="svg8"
   sodipodi:docname="star_free.svg"
   inkscape:version="0.92.2 5c3e80d, 2017-08-06">
  <defs
     id="defs12" />
  <sodipodi:namedview
     pagecolor="#ffffff"
     bordercolor="#666666"
     borderopacity="1"
     objecttolerance="10"
     gridtolerance="10"
     guidetolerance="10"
     inkscape:pageopacity="0"
     inkscape:pageshadow="2"
     inkscape:window-width="640"
     inkscape:window-height="480"
     id="namedview10"
     showgrid="false"
     inkscape:zoom="2.2142298"
     inkscape:cx="39.970531"
     inkscape:cy="107.17029"
     inkscape:current-layer="g586"
     fit-margin-top="0"
     fit-margin-left="0"
     fit-margin-right="0"
     fit-margin-bottom="0" />
  <metadata
     id="metadata2">
Created by potrace 1.15, written by Peter Selinger 2001-2017
<rdf:RDF>
  <cc:Work
     rdf:about="">
    <dc:format>image/svg+xml</dc:format>
    <dc:type
       rdf:resource="http://purl.org/dc/dcmitype/StillImage" />
    <dc:title />
  </cc:Work>
</rdf:RDF>
</metadata>
  <g
     aria-label="Get 6 Months Free On Select Plans Only Until June 25   "
     style="font-style:normal;font-variant:normal;font-weight:800;font-stretch:normal;font-size:116.8122406px;line-height:1.25;font-family:'Proxima Nova';-inkscape-font-specification:'Proxima Nova, Ultra-Bold';font-variant-ligatures:normal;font-variant-caps:normal;font-variant-numeric:normal;font-feature-settings:normal;text-align:center;letter-spacing:0px;word-spacing:0px;writing-mode:lr-tb;text-anchor:middle;fill:#005c88;fill-opacity:1;stroke:none;stroke-width:2.92029619"
     id="text18"
     transform="translate(-1588.1322,133.52186)">
    <g
       id="g586"
       transform="matrix(2.8346426,0,0,2.8346426,1588.1322,-133.52186)">
      <g
         transform="matrix(0.05809081,0,0,0.05809081,-18.853706,-20.154285)"
         id="g226">
        <g
           transform="matrix(0.72874959,0,0,0.72874959,294.47336,345.54763)"
           id="g271">
          <g
             transform="matrix(1.1076792,0,0,1.1076792,62.089159,-119.65378)"
             id="g289">
            <path
               id="path175"
               style="font-style:normal;font-variant:normal;font-weight:800;font-stretch:normal;font-size:131.48492432px;line-height:1.25;font-family:'Proxima Nova';-inkscape-font-specification:'Proxima Nova, Ultra-Bold';font-variant-ligatures:normal;font-variant-caps:normal;font-variant-numeric:normal;font-feature-settings:normal;text-align:center;letter-spacing:0px;word-spacing:0px;writing-mode:lr-tb;text-anchor:middle;fill:#005c88;fill-opacity:1;stroke:none;stroke-width:3.287112"
               d="m 266.89153,681.05804 c 16.5671,0 29.32114,-6.70573 38.78806,-17.09304 v -34.8435 h -42.33815 v 19.85422 h 19.72274 v 6.83722 c -3.15564,2.6297 -9.72989,5.2594 -16.17265,5.2594 -14.33185,0 -24.45619,-11.04474 -24.45619,-25.3766 0,-14.33185 10.12434,-25.37659 24.45619,-25.37659 8.54652,0 15.25225,5.39089 18.53938,11.17622 l 18.93383,-9.86137 c -6.04831,-10.91325 -17.88195,-21.30055 -37.47321,-21.30055 -26.1655,0 -47.46606,17.48749 -47.46606,45.36229 0,27.87481 21.30056,45.3623 47.46606,45.3623 z"
               inkscape:connector-curvature="0" />
            <path
               id="path177"
               style="font-style:normal;font-variant:normal;font-weight:800;font-stretch:normal;font-size:131.48492432px;line-height:1.25;font-family:'Proxima Nova';-inkscape-font-specification:'Proxima Nova, Ultra-Bold';font-variant-ligatures:normal;font-variant-caps:normal;font-variant-numeric:normal;font-feature-settings:normal;text-align:center;letter-spacing:0px;word-spacing:0px;writing-mode:lr-tb;text-anchor:middle;fill:#005c88;fill-opacity:1;stroke:none;stroke-width:3.287112"
               d="m 348.89293,681.05804 c 9.72988,0 20.24868,-2.76118 26.55995,-8.41503 l -8.54652,-12.62255 c -3.55009,3.4186 -11.3077,5.39088 -15.77819,5.39088 -9.20394,0 -14.72631,-5.39088 -15.90968,-11.30771 h 45.23082 v -4.339 c 0,-21.56353 -13.67443,-35.36944 -32.47678,-35.36944 -19.85422,0 -33.79162,14.85779 -33.79162,33.26568 0,20.64314 15.12076,33.39717 34.71202,33.39717 z m 12.22809,-40.1029 h -26.16549 c 0.7889,-4.60197 4.20751,-10.91325 13.017,-10.91325 9.33543,0 12.62256,6.44276 13.14849,10.91325 z"
               inkscape:connector-curvature="0" />
            <path
               id="path179"
               style="font-style:normal;font-variant:normal;font-weight:800;font-stretch:normal;font-size:131.48492432px;line-height:1.25;font-family:'Proxima Nova';-inkscape-font-specification:'Proxima Nova, Ultra-Bold';font-variant-ligatures:normal;font-variant-caps:normal;font-variant-numeric:normal;font-feature-settings:normal;text-align:center;letter-spacing:0px;word-spacing:0px;writing-mode:lr-tb;text-anchor:middle;fill:#005c88;fill-opacity:1;stroke:none;stroke-width:3.287112"
               d="m 414.61279,681.05804 c 7.49464,0 12.49107,-1.84079 14.98929,-4.20751 l -3.94455,-15.25226 c -0.65743,0.78891 -2.89267,1.57782 -5.12791,1.57782 -3.5501,0 -5.65386,-2.76118 -5.65386,-6.44276 v -23.14134 h 12.88553 V 615.97301 H 414.87576 V 598.617 h -20.11719 v 17.35601 h -10.51879 v 17.61898 h 10.51879 v 28.79519 c 0,12.2281 6.9687,18.67086 19.85422,18.67086 z"
               inkscape:connector-curvature="0" />
            <path
               id="path181"
               style="font-style:normal;font-variant:normal;font-weight:800;font-stretch:normal;font-size:131.48492432px;line-height:1.25;font-family:'Proxima Nova';-inkscape-font-specification:'Proxima Nova, Ultra-Bold';font-variant-ligatures:normal;font-variant-caps:normal;font-variant-numeric:normal;font-feature-settings:normal;text-align:center;letter-spacing:0px;word-spacing:0px;writing-mode:lr-tb;text-anchor:middle;fill:#005c88;fill-opacity:1;stroke:none;stroke-width:3.287112"
               d="m 507.34048,681.05804 c 20.38016,0 34.97499,-12.75403 34.97499,-30.76747 0,-18.67086 -14.59483,-28.7952 -30.37302,-28.7952 -8.94097,0 -17.22452,4.20752 -21.56353,9.99286 0,-0.26297 0,-0.52594 0,-1.05188 0,-12.2281 9.86137,-19.98571 20.51165,-19.98571 7.23167,0 11.96513,1.84079 16.83007,5.78534 l 9.86137,-17.35601 c -6.57424,-5.12792 -16.30413,-8.41504 -26.69144,-8.41504 -26.55995,0 -43.39002,17.35601 -43.39002,45.3623 0,25.11362 12.09661,45.23081 39.83993,45.23081 z m -1.44633,-19.9857 c -10.65028,0 -14.8578,-7.36316 -15.51523,-14.46335 3.81307,-3.94454 9.20395,-5.91682 14.72632,-5.91682 6.83721,0 14.33185,3.02416 14.33185,10.38731 0,4.86494 -5.12791,9.99286 -13.54294,9.99286 z"
               inkscape:connector-curvature="0" />
            <path
               id="path183"
               style="font-style:normal;font-variant:normal;font-weight:800;font-stretch:normal;font-size:131.48492432px;line-height:1.25;font-family:'Proxima Nova';-inkscape-font-specification:'Proxima Nova, Ultra-Bold';font-variant-ligatures:normal;font-variant-caps:normal;font-variant-numeric:normal;font-feature-settings:normal;text-align:center;letter-spacing:0px;word-spacing:0px;writing-mode:lr-tb;text-anchor:middle;fill:#005c88;fill-opacity:1;stroke:none;stroke-width:3.287112"
               d="m 686.29763,679.48022 v -87.70044 h -31.42489 l -18.40789,47.59754 -18.27641,-47.59754 h -31.42489 v 87.70044 h 22.6154 v -57.06445 l 22.08947,57.06445 h 9.99285 l 22.22096,-57.06445 v 57.06445 z"
               inkscape:connector-curvature="0" />
            <path
               id="path185"
               style="font-style:normal;font-variant:normal;font-weight:800;font-stretch:normal;font-size:131.48492432px;line-height:1.25;font-family:'Proxima Nova';-inkscape-font-specification:'Proxima Nova, Ultra-Bold';font-variant-ligatures:normal;font-variant-caps:normal;font-variant-numeric:normal;font-feature-settings:normal;text-align:center;letter-spacing:0px;word-spacing:0px;writing-mode:lr-tb;text-anchor:middle;fill:#005c88;fill-opacity:1;stroke:none;stroke-width:3.287112"
               d="m 731.91675,681.05804 c 21.82649,0 34.71202,-15.51522 34.71202,-33.39717 0,-17.88195 -12.88553,-33.26568 -34.71202,-33.26568 -21.56353,0 -34.58054,15.38373 -34.58054,33.26568 0,17.88195 13.01701,33.39717 34.58054,33.39717 z m 0,-17.88195 c -8.80949,0 -13.67444,-6.9687 -13.67444,-15.51522 0,-8.41503 4.86495,-15.38373 13.67444,-15.38373 8.94097,0 13.9374,6.9687 13.9374,15.38373 0,8.54652 -4.99643,15.51522 -13.9374,15.51522 z"
               inkscape:connector-curvature="0" />
            <path
               id="path187"
               style="font-style:normal;font-variant:normal;font-weight:800;font-stretch:normal;font-size:131.48492432px;line-height:1.25;font-family:'Proxima Nova';-inkscape-font-specification:'Proxima Nova, Ultra-Bold';font-variant-ligatures:normal;font-variant-caps:normal;font-variant-numeric:normal;font-feature-settings:normal;text-align:center;letter-spacing:0px;word-spacing:0px;writing-mode:lr-tb;text-anchor:middle;fill:#005c88;fill-opacity:1;stroke:none;stroke-width:3.287112"
               d="m 840.54585,679.48022 v -44.96784 c 0,-11.70216 -6.57425,-20.11719 -21.03759,-20.11719 -10.65028,0 -18.14492,4.86494 -21.95798,9.33543 v -7.75761 H 777.3016 v 63.50721 h 20.24868 v -41.02329 c 2.36673,-2.89267 6.31128,-6.17979 12.35958,-6.17979 6.31128,0 10.38731,2.76118 10.38731,10.51879 v 36.68429 z"
               inkscape:connector-curvature="0" />
            <path
               id="path189"
               style="font-style:normal;font-variant:normal;font-weight:800;font-stretch:normal;font-size:131.48492432px;line-height:1.25;font-family:'Proxima Nova';-inkscape-font-specification:'Proxima Nova, Ultra-Bold';font-variant-ligatures:normal;font-variant-caps:normal;font-variant-numeric:normal;font-feature-settings:normal;text-align:center;letter-spacing:0px;word-spacing:0px;writing-mode:lr-tb;text-anchor:middle;fill:#005c88;fill-opacity:1;stroke:none;stroke-width:3.287112"
               d="m 879.43256,681.05804 c 7.49464,0 12.49106,-1.84079 14.98928,-4.20751 l -3.94455,-15.25226 c -0.65742,0.78891 -2.89267,1.57782 -5.12791,1.57782 -3.55009,0 -5.65385,-2.76118 -5.65385,-6.44276 v -23.14134 h 12.88552 V 615.97301 H 879.69553 V 598.617 h -20.1172 v 17.35601 h -10.51879 v 17.61898 h 10.51879 v 28.79519 c 0,12.2281 6.9687,18.67086 19.85423,18.67086 z"
               inkscape:connector-curvature="0" />
            <path
               id="path191"
               style="font-style:normal;font-variant:normal;font-weight:800;font-stretch:normal;font-size:131.48492432px;line-height:1.25;font-family:'Proxima Nova';-inkscape-font-specification:'Proxima Nova, Ultra-Bold';font-variant-ligatures:normal;font-variant-caps:normal;font-variant-numeric:normal;font-feature-settings:normal;text-align:center;letter-spacing:0px;word-spacing:0px;writing-mode:lr-tb;text-anchor:middle;fill:#005c88;fill-opacity:1;stroke:none;stroke-width:3.287112"
               d="m 965.99893,679.48022 v -45.23081 c 0,-11.70216 -6.57425,-19.85422 -21.03759,-19.85422 -10.65028,0 -18.14492,4.86494 -21.95798,9.33543 v -31.95084 h -20.24868 v 87.70044 h 20.24868 v -41.02329 c 2.36673,-2.89267 6.31128,-6.17979 12.2281,-6.17979 6.44276,0 10.51879,2.49821 10.51879,10.25582 v 36.94726 z"
               inkscape:connector-curvature="0" />
            <path
               id="path193"
               style="font-style:normal;font-variant:normal;font-weight:800;font-stretch:normal;font-size:131.48492432px;line-height:1.25;font-family:'Proxima Nova';-inkscape-font-specification:'Proxima Nova, Ultra-Bold';font-variant-ligatures:normal;font-variant-caps:normal;font-variant-numeric:normal;font-feature-settings:normal;text-align:center;letter-spacing:0px;word-spacing:0px;writing-mode:lr-tb;text-anchor:middle;fill:#005c88;fill-opacity:1;stroke:none;stroke-width:3.287112"
               d="m 1005.0171,681.05804 c 18.2764,0 28.9266,-8.94097 28.9266,-21.03758 0,-26.03402 -36.94722,-18.80235 -36.94722,-26.1655 0,-2.6297 3.28712,-4.60198 8.02062,-4.60198 7.6261,0 14.8578,3.28713 18.6708,6.9687 l 7.7576,-13.41146 c -6.8372,-4.99642 -15.9096,-8.41503 -26.5599,-8.41503 -17.619,0 -27.2174,9.72988 -27.2174,20.9061 0,25.50808 36.9473,17.35601 36.9473,25.63956 0,2.89267 -2.4983,4.86494 -8.5466,4.86494 -7.4946,0 -17.61894,-4.20752 -22.3524,-8.41503 l -8.41503,13.9374 c 6.70573,5.91682 18.40789,9.72988 29.71563,9.72988 z"
               inkscape:connector-curvature="0" />
          </g>
          <g
             transform="matrix(1.1076792,0,0,1.1076792,-582.17002,48.218554)"
             id="g277">
            <path
               id="path195"
               style="font-style:normal;font-variant:normal;font-weight:800;font-stretch:normal;font-size:131.48492432px;line-height:1.25;font-family:'Proxima Nova';-inkscape-font-specification:'Proxima Nova, Ultra-Bold';font-variant-ligatures:normal;font-variant-caps:normal;font-variant-numeric:normal;font-feature-settings:normal;text-align:center;letter-spacing:0px;word-spacing:0px;writing-mode:lr-tb;text-anchor:middle;fill:#005c88;fill-opacity:1;stroke:none;stroke-width:3.287112"
               d="m 1101.1634,679.48022 v -34.58053 h 40.7603 v -19.72274 h -40.7603 v -13.67443 h 41.6807 v -19.72274 h -64.2961 v 87.70044 z"
               inkscape:connector-curvature="0" />
            <path
               id="path197"
               style="font-style:normal;font-variant:normal;font-weight:800;font-stretch:normal;font-size:131.48492432px;line-height:1.25;font-family:'Proxima Nova';-inkscape-font-specification:'Proxima Nova, Ultra-Bold';font-variant-ligatures:normal;font-variant-caps:normal;font-variant-numeric:normal;font-feature-settings:normal;text-align:center;letter-spacing:0px;word-spacing:0px;writing-mode:lr-tb;text-anchor:middle;fill:#005c88;fill-opacity:1;stroke:none;stroke-width:3.287112"
               d="m 1174.7991,679.48022 v -40.49735 c 2.6297,-3.5501 9.5984,-5.78534 14.8578,-5.78534 2.1037,0 3.813,0.26297 4.9964,0.52594 V 614.2637 c -7.6261,0 -15.6467,4.339 -19.8542,9.46692 v -7.75761 h -20.2487 v 63.50721 z"
               inkscape:connector-curvature="0" />
            <path
               id="path199"
               style="font-style:normal;font-variant:normal;font-weight:800;font-stretch:normal;font-size:131.48492432px;line-height:1.25;font-family:'Proxima Nova';-inkscape-font-specification:'Proxima Nova, Ultra-Bold';font-variant-ligatures:normal;font-variant-caps:normal;font-variant-numeric:normal;font-feature-settings:normal;text-align:center;letter-spacing:0px;word-spacing:0px;writing-mode:lr-tb;text-anchor:middle;fill:#005c88;fill-opacity:1;stroke:none;stroke-width:3.287112"
               d="m 1234.3617,681.05804 c 9.7299,0 20.2487,-2.76118 26.56,-8.41503 l -8.5466,-12.62255 c -3.5501,3.4186 -11.3077,5.39088 -15.7781,5.39088 -9.204,0 -14.7264,-5.39088 -15.9097,-11.30771 h 45.2308 v -4.339 c 0,-21.56353 -13.6744,-35.36944 -32.4768,-35.36944 -19.8542,0 -33.7916,14.85779 -33.7916,33.26568 0,20.64314 15.1208,33.39717 34.712,33.39717 z m 12.2281,-40.1029 h -26.1655 c 0.7889,-4.60197 4.2075,-10.91325 13.017,-10.91325 9.3354,0 12.6226,6.44276 13.1485,10.91325 z"
               inkscape:connector-curvature="0" />
            <path
               id="path201"
               style="font-style:normal;font-variant:normal;font-weight:800;font-stretch:normal;font-size:131.48492432px;line-height:1.25;font-family:'Proxima Nova';-inkscape-font-specification:'Proxima Nova, Ultra-Bold';font-variant-ligatures:normal;font-variant-caps:normal;font-variant-numeric:normal;font-feature-settings:normal;text-align:center;letter-spacing:0px;word-spacing:0px;writing-mode:lr-tb;text-anchor:middle;fill:#005c88;fill-opacity:1;stroke:none;stroke-width:3.287112"
               d="m 1306.5243,681.05804 c 9.7299,0 20.2487,-2.76118 26.56,-8.41503 l -8.5466,-12.62255 c -3.5501,3.4186 -11.3077,5.39088 -15.7782,5.39088 -9.2039,0 -14.7263,-5.39088 -15.9096,-11.30771 h 45.2308 v -4.339 c 0,-21.56353 -13.6744,-35.36944 -32.4768,-35.36944 -19.8542,0 -33.7916,14.85779 -33.7916,33.26568 0,20.64314 15.1208,33.39717 34.712,33.39717 z m 12.2281,-40.1029 h -26.1655 c 0.7889,-4.60197 4.2075,-10.91325 13.017,-10.91325 9.3354,0 12.6226,6.44276 13.1485,10.91325 z"
               inkscape:connector-curvature="0" />
          </g>
        </g>
        <g
           id="g149-9"
           transform="matrix(0.08427286,0,0,-0.08427286,323.1285,1367.6593)"
           style="fill:#ffcc00;fill-opacity:1;stroke:none">
          <path
             id="path147-3"
             d="m 7815,10968 c -429,-634 -921,-1363 -1095,-1620 -173,-257 -317,-467 -320,-467 -3,0 -329,440 -725,979 -542,737 -722,975 -727,962 -5,-9 -143,-514 -309,-1122 -165,-607 -302,-1106 -304,-1109 -2,-2 -57,26 -122,61 -2162,1190 -3965,2179 -3968,2176 -2,-1 94,-118 213,-259 120,-140 516,-610 882,-1044 366,-434 830,-985 1032,-1224 203,-240 368,-438 368,-441 0,-3 -51,-16 -112,-28 C 2449,7795 844,7467 415,7379 200,7336 22,7299 17,7297 c -4,-1 180,-153 409,-337 636,-511 1779,-1432 1782,-1435 3,-2 -476,-359 -1780,-1327 -237,-177 -320,-244 -305,-246 12,-1 744,79 1627,177 883,99 1606,178 1608,177 1,-2 -117,-464 -263,-1026 -145,-563 -263,-1025 -262,-1027 2,-1 394,247 871,552 508,324 869,549 871,542 2,-7 103,-745 225,-1642 C 4921,809 5023,62 5027,45 l 6,-30 8,25 c 13,42 450,1392 629,1945 93,286 257,795 366,1130 108,336 200,614 204,618 4,4 366,-595 805,-1332 440,-737 800,-1339 802,-1337 2,2 153,975 435,2804 12,78 25,142 28,142 5,0 347,-286 1788,-1491 353,-296 642,-534 642,-528 0,9 -156,596 -380,1429 -82,306 -342,1277 -366,1372 -10,37 -16,69 -14,71 3,3 608,-37 1345,-88 737,-52 1366,-95 1398,-97 45,-3 55,-2 45,8 -7,6 -530,357 -1163,779 -632,422 -1155,773 -1162,779 -9,8 78,68 345,237 910,578 1687,1072 1691,1075 9,9 -12,13 -239,53 -129,23 -374,67 -545,97 -578,103 -1259,224 -1527,271 -148,26 -268,50 -268,54 0,4 221,364 491,799 269,436 489,793 487,795 -3,2 -542,-102 -2005,-387 l -483,-95 v 36 c 0,20 11,187 25,371 25,346 36,499 130,1789 31,420 54,768 53,773 -2,4 -354,-510 -783,-1144 z"
             inkscape:connector-curvature="0"
             style="fill:#ffcc00;fill-opacity:1" />
        </g>
        <flowRoot
           xml:space="preserve"
           id="flowRoot159-8"
           style="font-style:normal;font-weight:normal;font-size:40px;line-height:1.25;font-family:sans-serif;letter-spacing:0px;word-spacing:0px;fill:#000000;fill-opacity:1;stroke:none"
           transform="matrix(0.75,0,0,0.75,159.89838,140.96391)"><flowRegion
             id="flowRegion161-0"><rect
               id="rect163-2"
               width="722.59888"
               height="86.711861"
               x="-372.1384"
               y="588.91809" /></flowRegion><flowPara
             id="flowPara165-4" /></flowRoot>      </g>
      <text
         xml:space="preserve"
         style="font-style:normal;font-variant:normal;font-weight:800;font-stretch:normal;font-size:4.53330755px;line-height:1.25;font-family:'Open Sans';-inkscape-font-specification:'Open Sans, Ultra-Bold';font-variant-ligatures:normal;font-variant-caps:normal;font-variant-numeric:normal;font-feature-settings:normal;text-align:center;letter-spacing:0px;word-spacing:0px;writing-mode:lr-tb;text-anchor:middle;fill:#005c88;fill-opacity:1;stroke:none;stroke-width:0.33096504"
         x="31.091652"
         y="25.082014"
         id="text39"><tspan
           sodipodi:role="line"
           id="tspan37"
           x="31.091654"
           y="25.082014"
           style="font-style:normal;font-variant:normal;font-weight:800;font-stretch:normal;font-size:4.53330755px;font-family:'Open Sans';-inkscape-font-specification:'Open Sans, Ultra-Bold';font-variant-ligatures:normal;font-variant-caps:normal;font-variant-numeric:normal;font-feature-settings:normal;text-align:center;writing-mode:lr-tb;text-anchor:middle;fill:#005c88;fill-opacity:1;stroke-width:0.33096504">Get 6 Months Free</tspan><tspan
           sodipodi:role="line"
           x="31.091652"
           y="30.748648"
           style="font-style:normal;font-variant:normal;font-weight:800;font-stretch:normal;font-size:4.53330755px;font-family:'Open Sans';-inkscape-font-specification:'Open Sans, Ultra-Bold';font-variant-ligatures:normal;font-variant-caps:normal;font-variant-numeric:normal;font-feature-settings:normal;text-align:center;writing-mode:lr-tb;text-anchor:middle;fill:#005c88;fill-opacity:1;stroke-width:0.33096504"
           id="tspan41">Only Until</tspan><tspan
           sodipodi:role="line"
           x="31.091652"
           y="36.415283"
           style="font-style:normal;font-variant:normal;font-weight:800;font-stretch:normal;font-size:4.53330755px;font-family:'Open Sans';-inkscape-font-specification:'Open Sans, Ultra-Bold';font-variant-ligatures:normal;font-variant-caps:normal;font-variant-numeric:normal;font-feature-settings:normal;text-align:center;writing-mode:lr-tb;text-anchor:middle;fill:#005c88;fill-opacity:1;stroke-width:0.33096504"
           id="tspan43">November 30</tspan></text>
    </g>
  </g>
  <flowRoot
     xml:space="preserve"
     id="flowRoot159"
     style="font-style:normal;font-weight:normal;font-size:40px;line-height:1.25;font-family:sans-serif;letter-spacing:0px;word-spacing:0px;fill:#000000;fill-opacity:1;stroke:none"
     transform="matrix(0.75,0,0,0.75,-1428.2338,274.48577)"><flowRegion
       id="flowRegion161"><rect
         id="rect163"
         width="722.59888"
         height="86.711861"
         x="-372.1384"
         y="588.91809" /></flowRegion><flowPara
       id="flowPara165" /></flowRoot>  <style
     id="style8"
     data-made-with="vivus-instant">.uROpgraj_0{stroke-dasharray:300 302;stroke-dashoffset:301;animation:uROpgraj_draw 2000ms ease-in 0ms forwards;}@keyframes uROpgraj_draw{100%{stroke-dashoffset:0;}}@keyframes uROpgraj_fade{0%{stroke-opacity:1;}94.44444444444444%{stroke-opacity:1;}100%{stroke-opacity:0;}}</style>
</svg>
